<?xml version="1.0" encoding="utf-8"?>
<!-- Generator: Adobe Illustrator 16.0.0, SVG Export Plug-In . SVG Version: 6.00 Build 0)  -->
<!DOCTYPE svg PUBLIC "-//W3C//DTD SVG 1.1//EN" "http://www.w3.org/Graphics/SVG/1.1/DTD/svg11.dtd">
<svg version="1.1" id="Layer_1" xmlns="http://www.w3.org/2000/svg" xmlns:xlink="http://www.w3.org/1999/xlink" x="0px" y="0px"
	 width="254.357px" height="56.641px" viewBox="0 0 254.357 56.641" enable-background="new 0 0 254.357 56.641"
	 xml:space="preserve">
<path d="M35.64,16.517v-0.742h1.681V0.742H35.64V0h8.06v0.742h-2.225v15.031h2.769c2.795,0,3.833-2.322,4.602-4.673h0.69
	l-0.247,5.415L35.64,16.517L35.64,16.517z"/>
<path d="M58.456,11.522c-1.336,0.074-3.141,0.247-3.141,2.002c0,0.843,0.446,1.955,1.435,1.955c1.139,0,1.706-0.768,1.706-1.436
	V11.522L58.456,11.522z M58.456,9.272c0-1.285,0.101-2.053-1.729-2.053c-0.272,0-1.313,0.149-1.313,0.594
	c0,0.124,0.124,0.321,0.247,0.521c0.124,0.196,0.248,0.42,0.248,0.617c0,1.038-0.519,1.729-1.583,1.729
	c-0.865,0-1.582-0.569-1.582-1.483c0-1.951,2.67-2.619,4.203-2.619c3.19,0,4.55,0.915,4.55,1.632v6.007
	c0,0.521,0.025,1.139,0.717,1.139c0.175,0,0.521-0.174,0.618-0.347l0.445,0.471c-0.668,1.038-1.385,1.408-2.571,1.408
	c-1.063,0-1.953-0.915-2.201-1.706c-0.863,1.014-2.126,1.706-3.461,1.706s-2.894-0.766-2.894-2.299c0-2.895,4.104-3.611,6.306-3.659
	V9.272z"/>
<path d="M72.521,14.637h-0.05c-0.595,1.583-2.126,2.25-3.782,2.25c-3.042,0-2.992-1.384-2.992-3.833V7.418H63.99V6.725h1.707
	c0.568,0,1.137-0.023,1.706-0.049c0.568-0.024,1.137-0.05,1.706-0.05v6.897c0,1.36-0.124,2.351,0.988,2.351
	c1.385,0,2.424-1.931,2.424-2.695V7.418h-1.706V6.725h1.706c0.566,0,1.137-0.023,1.706-0.049c0.566-0.024,1.137-0.05,1.706-0.05
	v9.199h1.654v0.69h-1.654c-0.569,0-1.14,0.05-1.706,0.123c-0.569,0.05-1.14,0.124-1.706,0.124V14.637z"/>
<path d="M84.162,9.222h0.049c0.446-1.409,1.41-2.645,3.042-2.645c1.236,0,2.054,0.791,2.054,2.052c0,0.989-0.768,1.729-1.758,1.729
	c-0.863,0-1.557-0.567-1.557-1.482c0-0.469,0.123-0.692,0.296-1.112c0.075-0.173-0.566-0.444-1.508,1.313
	c-0.469,0.889-0.618,1.309-0.618,2.298v4.452h1.855v0.69h-6.528v-0.69h1.261V7.418h-1.31V6.725h1.31
	c1.139,0,2.275-0.099,3.412-0.099V9.222L84.162,9.222z"/>
<path d="M98.424,10.681V8.259c0-0.643-0.544-1.039-1.729-1.039c-1.063,0-1.508,0.47-1.508,1.137v2.324H98.424z M95.185,11.325v3.188
	c0,1.285,0.717,1.731,2.003,1.731c1.953,0,3.484-0.966,4.054-2.895l0.569,0.197c-0.644,2.3-2.497,3.338-4.796,3.338
	c-3.067,0-5.836-1.729-5.836-5.093s2.967-5.217,5.784-5.217c2.448,0,4.799,1.705,4.799,4.276c0,0.594-0.768,0.471-1.162,0.471
	h-5.415V11.325z"/>
<path d="M108.434,8.902c1.063-1.829,2.374-2.322,4.055-2.322c1.509,0,2.794,0.443,2.794,2.373v6.874h1.533v0.69h-6.183v-0.69h1.337
	V9.52c0-1.583-0.371-1.929-1.063-1.929c-1.583,0-2.473,2.027-2.473,3.387v4.849h1.311v0.69h-6.206v-0.69h1.582V7.417h-1.582V6.725
	h1.582c1.112,0,2.201-0.098,3.313-0.098V8.902z"/>
<path d="M119.358,3.98h1.459c0.643,0,1.311-0.173,1.953-0.246v3.189h1.879v0.691h-1.879v6.7c0,0.495-0.123,1.263,0.594,1.263
	c0.964,0,1.137-0.768,1.285-1.56l0.718,0.149c-0.42,2.002-1.756,2.719-3.709,2.719c-2.3,0-2.3-0.988-2.3-2.224V7.615h-1.508V6.923
	h1.508V3.98z"/>
<rect x="126.97" y="10.286" width="7.045" height="2.521"/>
<path d="M142.297,8.134h1.706c2.178,0,2.794-0.814,2.794-2.447v-2.67c0-1.955-0.792-2.273-2.794-2.273h-1.706V8.134z
	 M136.289,16.517v-0.742h1.854V0.742h-1.807V0h9.148c4.229,0,5.91,2.273,5.91,4.227c0,3.982-4.673,4.649-7.616,4.649h-1.483v6.897
	h2.227v0.742L136.289,16.517L136.289,16.517z"/>
<path d="M159.278,10.681V8.259c0-0.643-0.544-1.039-1.73-1.039c-1.063,0-1.508,0.47-1.508,1.137v2.324H159.278z M156.04,11.325
	v3.188c0,1.285,0.716,1.731,2.003,1.731c1.952,0,3.485-0.966,4.056-2.895l0.567,0.197c-0.643,2.3-2.498,3.338-4.797,3.338
	c-3.064,0-5.835-1.729-5.835-5.093s2.967-5.217,5.785-5.217c2.447,0,4.797,1.705,4.797,4.276c0,0.594-0.767,0.471-1.162,0.471
	h-5.414V11.325z"/>
<path d="M169.436,9.222h0.05c0.445-1.409,1.409-2.645,3.041-2.645c1.236,0,2.053,0.791,2.053,2.052c0,0.989-0.767,1.729-1.756,1.729
	c-0.864,0-1.558-0.567-1.558-1.482c0-0.469,0.124-0.692,0.297-1.112c0.074-0.173-0.568-0.444-1.508,1.313
	c-0.472,0.889-0.619,1.309-0.619,2.298v4.452h1.854v0.69h-6.525v-0.69h1.261V7.418h-1.312V6.725h1.312
	c1.139,0,2.273-0.099,3.412-0.099L169.436,9.222L169.436,9.222z"/>
<path d="M181.251,9.222h0.05c0.445-1.409,1.41-2.645,3.041-2.645c1.236,0,2.054,0.791,2.054,2.052c0,0.989-0.768,1.729-1.755,1.729
	c-0.865,0-1.56-0.567-1.56-1.482c0-0.469,0.124-0.692,0.297-1.112c0.074-0.173-0.567-0.444-1.508,1.313
	c-0.471,0.889-0.619,1.309-0.619,2.298v4.452h1.854v0.69h-6.527v-0.69h1.261V7.418h-1.311V6.725h1.311
	c1.14,0,2.275-0.099,3.412-0.099V9.222L181.251,9.222z"/>
<path d="M193.165,2.695c0,0.939-0.814,1.78-1.756,1.78c-0.938,0-1.781-0.841-1.781-1.78c0-0.938,0.866-1.756,1.781-1.756
	C192.323,0.939,193.165,1.756,193.165,2.695 M189.776,7.418h-1.705V6.725h1.705c0.569,0,1.139-0.022,1.707-0.049
	c0.569-0.024,1.136-0.05,1.705-0.05v9.199h1.508v0.69h-6.526v-0.69h1.606V7.418z"/>
<path d="M203.473,10.681V8.259c0-0.643-0.543-1.039-1.731-1.039c-1.062,0-1.508,0.47-1.508,1.137v2.324H203.473z M200.233,11.325
	v3.188c0,1.285,0.717,1.731,2.003,1.731c1.954,0,3.486-0.966,4.056-2.895l0.568,0.197c-0.645,2.3-2.497,3.338-4.797,3.338
	c-3.066,0-5.836-1.729-5.836-5.093s2.968-5.217,5.787-5.217c2.445,0,4.796,1.705,4.796,4.276c0,0.594-0.768,0.471-1.162,0.471
	h-5.415V11.325z"/>
<path d="M213.631,9.222h0.051c0.444-1.409,1.407-2.645,3.042-2.645c1.234,0,2.053,0.791,2.053,2.052c0,0.989-0.77,1.729-1.756,1.729
	c-0.866,0-1.56-0.567-1.56-1.482c0-0.469,0.123-0.692,0.296-1.112c0.074-0.173-0.566-0.444-1.508,1.313
	c-0.47,0.889-0.618,1.309-0.618,2.298v4.452h1.854v0.69h-6.526v-0.69h1.263V7.418h-1.313V6.725h1.313
	c1.137,0,2.272-0.099,3.41-0.099L213.631,9.222L213.631,9.222z"/>
<path fill="#FFFFFF" d="M16.614,41.629c-0.205-0.615-0.451-1.262-0.74-1.942c-0.289-0.679-0.661-1.303-1.117-1.871
	c-0.452-0.565-1.021-1.031-1.699-1.396c-0.681-0.364-1.521-0.545-2.524-0.545c-1.358,0-2.428,0.252-3.209,0.754
	s-1.371,1.2-1.771,2.095c-0.4,0.896-0.656,1.959-0.768,3.198c-0.113,1.237-0.167,2.593-0.167,4.063c0,1.938,0.109,3.539,0.335,4.805
	c0.221,1.269,0.57,2.271,1.045,3.018c0.476,0.746,1.087,1.27,1.84,1.564c0.754,0.299,1.652,0.445,2.694,0.445
	c0.837,0,1.593-0.167,2.274-0.504c0.677-0.334,1.275-0.774,1.798-1.325c0.521-0.55,0.957-1.178,1.312-1.887
	c0.354-0.707,0.615-1.441,0.78-2.205h0.447v5.921h-0.447c-0.093-0.224-0.204-0.378-0.332-0.461
	c-0.133-0.084-0.327-0.126-0.588-0.126c-0.222,0-0.511,0.054-0.864,0.154c-0.353,0.102-0.759,0.214-1.214,0.335
	c-0.455,0.12-0.953,0.231-1.493,0.335c-0.541,0.104-1.104,0.153-1.702,0.153c-1.356,0-2.669-0.268-3.934-0.796
	c-1.263-0.531-2.376-1.259-3.333-2.18c-0.959-0.923-1.725-2.007-2.302-3.255c-0.578-1.247-0.866-2.597-0.866-4.05
	c0-1.582,0.322-3.018,0.964-4.301c0.641-1.284,1.464-2.384,2.468-3.298c1.005-0.91,2.126-1.613,3.364-2.108
	c1.235-0.492,2.448-0.74,3.639-0.74c0.599,0,1.148,0.059,1.661,0.169c0.511,0.111,0.985,0.229,1.421,0.352
	c0.438,0.12,0.833,0.233,1.188,0.348c0.354,0.114,0.65,0.168,0.893,0.168c0.262,0,0.457-0.032,0.586-0.097
	c0.13-0.065,0.226-0.229,0.281-0.49h0.445v5.699L16.614,41.629L16.614,41.629z M36.144,35.93v0.393h-2.566v12.54
	c0,0.875,0.041,1.729,0.126,2.559c0.083,0.826,0.277,1.565,0.585,2.219c0.309,0.651,0.761,1.178,1.366,1.58
	c0.604,0.398,1.42,0.6,2.442,0.6c1.005,0,1.845-0.114,2.524-0.35c0.677-0.232,1.24-0.539,1.688-0.921
	c0.443-0.382,0.791-0.813,1.029-1.284c0.242-0.477,0.419-0.951,0.531-1.426c0.111-0.478,0.176-0.923,0.195-1.341
	c0.018-0.419,0.029-0.771,0.029-1.047V36.323h-2.539V35.93h5.576v0.393h-2.594v13.101c0,0.299-0.009,0.675-0.025,1.132
	c-0.02,0.457-0.096,0.937-0.226,1.438c-0.129,0.503-0.325,1.005-0.586,1.508c-0.261,0.505-0.641,0.955-1.143,1.354
	c-0.502,0.401-1.137,0.728-1.897,0.979c-0.763,0.25-1.703,0.377-2.815,0.377c-1.808,0-3.259-0.2-4.354-0.603
	c-1.098-0.397-1.938-0.922-2.525-1.563c-0.587-0.645-0.972-1.373-1.155-2.193c-0.188-0.817-0.281-1.646-0.281-2.483V36.323h-2.594
	V35.93H36.144z M63.848,35.93v0.393H61.17l5.774,15.141l5.888-15.141H70.32V35.93h5.328v0.393h-2.4l-7.867,20.25h-0.808
	l-7.701-20.25h-2.344V35.93H63.848z M94.328,29.032c0.157-0.187,0.423-0.28,0.795-0.28c0.148,0,0.339,0.07,0.571,0.209
	c0.233,0.14,0.349,0.35,0.349,0.63c0,0.075-0.014,0.185-0.041,0.335c-0.025,0.148-0.099,0.289-0.209,0.419l-3.935,4.188h-0.361
	l2.455-4.916C94.043,29.414,94.168,29.219,94.328,29.032 M100.118,35.93v4.776h-0.364c-0.093-0.316-0.251-0.723-0.474-1.215
	c-0.223-0.493-0.535-0.975-0.936-1.438c-0.401-0.464-0.915-0.869-1.55-1.215c-0.632-0.344-1.402-0.519-2.313-0.519h-4.438v8.632
	h1.563c0.687,0,1.27-0.1,1.744-0.293c0.474-0.194,0.871-0.477,1.186-0.84c0.316-0.36,0.576-0.8,0.781-1.312
	c0.205-0.513,0.372-1.085,0.502-1.72h0.364v8.688H95.82c-0.13-0.539-0.282-1.062-0.46-1.563c-0.177-0.502-0.414-0.942-0.712-1.324
	c-0.296-0.383-0.665-0.688-1.103-0.908c-0.438-0.225-0.981-0.335-1.632-0.335h-1.871v10.083h4.578c0.855,0,1.626-0.146,2.314-0.435
	c0.687-0.288,1.298-0.692,1.829-1.216c0.527-0.521,0.97-1.131,1.321-1.829c0.354-0.697,0.624-1.445,0.812-2.247h0.361v6.115H83.433
	v-0.391h2.564V36.323h-2.564V35.93H100.118z M127.515,35.93v4.776h-0.364c-0.093-0.316-0.252-0.723-0.477-1.215
	c-0.221-0.493-0.531-0.975-0.933-1.438c-0.402-0.465-0.917-0.869-1.549-1.215c-0.632-0.344-1.404-0.519-2.317-0.519h-4.435v8.632
	h1.563c0.688,0,1.271-0.1,1.743-0.293c0.476-0.194,0.87-0.477,1.188-0.84c0.313-0.36,0.573-0.8,0.778-1.312
	c0.204-0.513,0.372-1.085,0.502-1.72h0.363v8.688h-0.363c-0.13-0.539-0.281-1.062-0.461-1.563c-0.176-0.502-0.414-0.942-0.711-1.324
	c-0.297-0.383-0.664-0.688-1.102-0.908c-0.438-0.225-0.981-0.335-1.632-0.335h-1.869v10.083h4.576c0.854,0,1.627-0.146,2.313-0.435
	c0.689-0.288,1.298-0.692,1.829-1.216c0.529-0.521,0.971-1.131,1.325-1.829c0.354-0.697,0.623-1.445,0.809-2.247h0.363v6.115H110.83
	v-0.391h2.566V36.323h-2.566V35.93H127.515z M160.937,44.952c0.838,0,1.497-0.11,1.979-0.334c0.485-0.227,0.85-0.525,1.09-0.907
	c0.241-0.383,0.396-0.815,0.459-1.301c0.065-0.483,0.102-0.979,0.102-1.479c0-0.819-0.059-1.521-0.169-2.108
	c-0.111-0.586-0.297-1.068-0.559-1.451c-0.262-0.384-0.617-0.666-1.072-0.854c-0.457-0.187-1.038-0.28-1.745-0.28
	c-0.204,0-0.407,0.012-0.612,0.029c-0.205,0.019-0.41,0.038-0.616,0.058v8.63L160.937,44.952L160.937,44.952z M153.18,36.323V35.93
	h4.213c0.78,0,1.555-0.015,2.314-0.042c0.765-0.027,1.535-0.041,2.315-0.041c0.725,0,1.493,0.075,2.303,0.223
	c0.808,0.149,1.548,0.405,2.217,0.771c0.67,0.363,1.225,0.852,1.66,1.467c0.438,0.614,0.656,1.388,0.656,2.316
	c0,0.746-0.167,1.384-0.502,1.914c-0.335,0.528-0.77,0.963-1.299,1.301c-0.529,0.335-1.118,0.591-1.771,0.768
	c-0.649,0.179-1.293,0.293-1.925,0.35v0.141c0.91,0.168,1.726,0.335,2.44,0.503c0.715,0.167,1.334,0.419,1.854,0.754
	c0.521,0.335,0.934,0.801,1.241,1.396c0.307,0.598,0.498,1.396,0.569,2.4c0.097,1.176,0.169,2.115,0.227,2.822
	c0.055,0.707,0.133,1.256,0.235,1.647c0.104,0.391,0.24,0.65,0.418,0.78c0.178,0.131,0.434,0.195,0.769,0.195
	c0.372,0,0.678-0.105,0.919-0.321c0.244-0.215,0.457-0.414,0.645-0.601l0.278,0.252c-0.187,0.186-0.368,0.358-0.546,0.516
	c-0.175,0.159-0.38,0.294-0.611,0.406s-0.517,0.199-0.852,0.266c-0.335,0.065-0.753,0.099-1.255,0.099
	c-1.024,0-1.825-0.163-2.4-0.488c-0.576-0.325-1.005-0.729-1.282-1.215c-0.277-0.484-0.45-1.011-0.519-1.577
	c-0.063-0.569-0.104-1.104-0.125-1.605c-0.036-0.766-0.087-1.506-0.151-2.223c-0.063-0.717-0.221-1.354-0.462-1.913
	c-0.24-0.559-0.604-1.006-1.088-1.34c-0.482-0.335-1.162-0.503-2.037-0.503h-1.843V55.43h2.568v0.391h-9.181V55.43h2.566V36.323
	H153.18z M185.656,50.748c0.222,1.274,0.57,2.29,1.046,3.045c0.474,0.755,1.087,1.281,1.839,1.578
	c0.755,0.299,1.652,0.445,2.694,0.445c1.377,0,2.455-0.256,3.236-0.768c0.778-0.513,1.365-1.222,1.758-2.122
	c0.391-0.904,0.637-1.977,0.736-3.214c0.104-1.237,0.154-2.583,0.154-4.035c0-1.304-0.042-2.546-0.126-3.729
	c-0.083-1.184-0.32-2.228-0.711-3.131c-0.392-0.899-0.979-1.617-1.771-2.148c-0.79-0.53-1.885-0.795-3.277-0.795
	c-1.303,0-2.345,0.246-3.124,0.738c-0.782,0.493-1.377,1.188-1.786,2.08c-0.41,0.896-0.68,1.956-0.81,3.188
	c-0.13,1.228-0.194,2.579-0.194,4.049C185.321,47.867,185.432,49.473,185.656,50.748 M181.735,41.629
	c0.642-1.284,1.466-2.384,2.469-3.298c1.005-0.91,2.13-1.613,3.376-2.108c1.246-0.492,2.465-0.74,3.655-0.74
	c1.282,0,2.553,0.242,3.808,0.729c1.256,0.481,2.371,1.173,3.35,2.064c0.978,0.896,1.768,1.979,2.372,3.255
	c0.604,1.274,0.904,2.715,0.904,4.315c0,1.396-0.282,2.723-0.85,3.979c-0.569,1.258-1.331,2.359-2.288,3.312
	c-0.958,0.949-2.065,1.699-3.32,2.248c-1.256,0.549-2.581,0.823-3.976,0.823c-1.377,0-2.697-0.268-3.962-0.796
	c-1.267-0.531-2.376-1.258-3.333-2.18c-0.959-0.923-1.729-2.007-2.304-3.255c-0.576-1.247-0.864-2.597-0.864-4.05
	C180.772,44.348,181.093,42.913,181.735,41.629 M212.272,49.618c0.035,0.223,0.1,0.517,0.192,0.879
	c0.094,0.361,0.229,0.754,0.404,1.174c0.177,0.419,0.399,0.848,0.669,1.284c0.271,0.438,0.602,0.844,0.992,1.216
	c0.426,0.427,0.84,0.754,1.241,0.977c0.397,0.226,0.778,0.389,1.143,0.489c0.364,0.104,0.706,0.159,1.032,0.169
	c0.325,0.008,0.628,0.013,0.908,0.013c0.982,0,1.795-0.152,2.427-0.461c0.632-0.307,1.129-0.685,1.492-1.132
	c0.363-0.445,0.617-0.916,0.768-1.41c0.148-0.493,0.225-0.926,0.225-1.299c0-0.688-0.164-1.256-0.488-1.704
	c-0.325-0.444-0.759-0.817-1.296-1.115c-0.54-0.299-1.154-0.551-1.843-0.755c-0.688-0.205-1.396-0.416-2.12-0.63
	c-0.727-0.213-1.434-0.465-2.119-0.753c-0.689-0.289-1.303-0.661-1.843-1.118c-0.54-0.455-0.976-1.02-1.3-1.688
	c-0.323-0.671-0.484-1.509-0.484-2.517c0-0.743,0.167-1.461,0.502-2.147c0.334-0.688,0.799-1.3,1.395-1.83
	c0.597-0.53,1.308-0.959,2.136-1.284c0.825-0.327,1.726-0.49,2.691-0.49c0.613,0,1.152,0.059,1.617,0.169
	c0.465,0.111,0.875,0.229,1.228,0.352c0.354,0.12,0.664,0.235,0.937,0.348c0.27,0.113,0.515,0.168,0.739,0.168
	c0.261,0,0.433-0.042,0.517-0.126c0.083-0.083,0.172-0.235,0.265-0.461h0.447v5.309h-0.363c-0.224-0.649-0.461-1.296-0.711-1.928
	c-0.253-0.634-0.571-1.206-0.963-1.719c-0.391-0.513-0.885-0.927-1.479-1.243c-0.597-0.313-1.349-0.474-2.259-0.474
	c-0.743,0-1.398,0.102-1.97,0.307c-0.564,0.205-1.045,0.477-1.435,0.812c-0.395,0.335-0.69,0.708-0.896,1.116
	c-0.206,0.409-0.307,0.828-0.307,1.258c0,0.65,0.172,1.189,0.516,1.621c0.345,0.427,0.795,0.795,1.354,1.103
	c0.556,0.308,1.193,0.572,1.91,0.796c0.716,0.225,1.45,0.457,2.203,0.699c0.754,0.241,1.487,0.508,2.204,0.796
	c0.716,0.289,1.354,0.654,1.909,1.103c0.56,0.447,1.011,0.988,1.354,1.62c0.344,0.636,0.515,1.415,0.515,2.349
	c0,0.912-0.187,1.776-0.557,2.598c-0.372,0.819-0.898,1.536-1.576,2.15c-0.681,0.612-1.489,1.104-2.427,1.466
	c-0.941,0.363-1.986,0.545-3.143,0.545c-0.574,0-1.146-0.056-1.716-0.168c-0.565-0.111-1.097-0.229-1.59-0.35
	c-0.494-0.12-0.931-0.237-1.312-0.351c-0.384-0.111-0.665-0.167-0.853-0.167c-0.261,0-0.447,0.043-0.557,0.126
	c-0.112,0.084-0.216,0.255-0.311,0.519h-0.444v-6.2h0.423v-0.008H212.272z M247.355,29.032c0.157-0.187,0.423-0.28,0.795-0.28
	c0.146,0,0.339,0.07,0.57,0.209c0.231,0.14,0.351,0.35,0.351,0.63c0,0.075-0.016,0.185-0.043,0.335
	c-0.028,0.148-0.097,0.289-0.208,0.419l-3.938,4.188h-0.359l2.454-4.916C247.07,29.414,247.196,29.219,247.355,29.032
	 M253.144,35.93v4.776h-0.362c-0.092-0.316-0.25-0.723-0.475-1.215c-0.226-0.493-0.533-0.975-0.937-1.438
	c-0.397-0.465-0.916-0.869-1.548-1.215c-0.632-0.344-1.404-0.519-2.316-0.519h-4.435v8.632h1.562c0.688,0,1.271-0.1,1.743-0.293
	c0.477-0.194,0.869-0.477,1.188-0.84c0.313-0.36,0.575-0.8,0.78-1.312c0.203-0.513,0.37-1.085,0.502-1.72h0.361v8.688h-0.361
	c-0.132-0.539-0.282-1.062-0.459-1.563c-0.179-0.502-0.415-0.942-0.715-1.324c-0.297-0.383-0.662-0.688-1.101-0.908
	c-0.438-0.225-0.982-0.335-1.632-0.335h-1.869v10.083h4.574c0.854,0,1.628-0.146,2.314-0.435c0.688-0.288,1.297-0.692,1.826-1.216
	c0.531-0.521,0.973-1.131,1.326-1.829c0.353-0.697,0.623-1.445,0.81-2.247h0.362v6.115H236.46v-0.391h2.565V36.323h-2.565V35.93
	H253.144z"/>
<path fill="#FFFFFF" stroke="#FFFFFF" stroke-width="0.138" d="M16.614,41.629c-0.205-0.615-0.451-1.262-0.74-1.942
	c-0.289-0.679-0.661-1.303-1.117-1.871c-0.452-0.565-1.021-1.031-1.699-1.396c-0.681-0.364-1.521-0.545-2.524-0.545
	c-1.358,0-2.428,0.252-3.209,0.754s-1.371,1.2-1.771,2.095c-0.4,0.896-0.656,1.959-0.768,3.198
	c-0.113,1.237-0.167,2.593-0.167,4.063c0,1.938,0.109,3.539,0.335,4.805c0.221,1.269,0.57,2.271,1.045,3.018
	c0.476,0.746,1.087,1.27,1.84,1.564c0.754,0.299,1.652,0.445,2.694,0.445c0.837,0,1.593-0.167,2.274-0.504
	c0.677-0.334,1.275-0.774,1.798-1.325c0.521-0.55,0.957-1.178,1.312-1.887c0.354-0.707,0.615-1.441,0.78-2.205h0.447v5.921h-0.447
	c-0.093-0.224-0.204-0.378-0.332-0.461c-0.133-0.084-0.327-0.126-0.588-0.126c-0.222,0-0.511,0.054-0.864,0.154
	c-0.353,0.102-0.759,0.214-1.214,0.335c-0.455,0.12-0.953,0.231-1.493,0.335c-0.541,0.104-1.104,0.153-1.702,0.153
	c-1.356,0-2.669-0.268-3.934-0.796c-1.263-0.531-2.376-1.259-3.333-2.18c-0.959-0.923-1.725-2.007-2.302-3.255
	c-0.578-1.247-0.866-2.597-0.866-4.05c0-1.582,0.322-3.018,0.964-4.301c0.641-1.284,1.464-2.384,2.468-3.298
	c1.005-0.91,2.126-1.613,3.364-2.108c1.235-0.492,2.448-0.74,3.639-0.74c0.599,0,1.148,0.059,1.661,0.169
	c0.511,0.111,0.985,0.229,1.421,0.352c0.438,0.12,0.833,0.233,1.188,0.348c0.354,0.114,0.65,0.168,0.893,0.168
	c0.262,0,0.457-0.032,0.586-0.097c0.13-0.065,0.226-0.229,0.281-0.49h0.445v5.699L16.614,41.629L16.614,41.629z M36.144,35.93v0.393
	h-2.566v12.54c0,0.875,0.041,1.729,0.126,2.559c0.083,0.826,0.277,1.565,0.585,2.219c0.309,0.651,0.761,1.178,1.366,1.58
	c0.604,0.398,1.42,0.6,2.442,0.6c1.005,0,1.845-0.114,2.524-0.35c0.677-0.232,1.24-0.539,1.688-0.921
	c0.443-0.382,0.791-0.813,1.029-1.284c0.242-0.477,0.419-0.951,0.531-1.426c0.111-0.478,0.176-0.923,0.195-1.341
	c0.018-0.419,0.029-0.771,0.029-1.047V36.323h-2.539V35.93h5.576v0.393h-2.594v13.101c0,0.299-0.009,0.675-0.025,1.132
	c-0.02,0.457-0.096,0.937-0.226,1.438c-0.129,0.503-0.325,1.005-0.586,1.508c-0.261,0.505-0.641,0.955-1.143,1.354
	c-0.502,0.401-1.137,0.728-1.897,0.979c-0.763,0.25-1.703,0.377-2.815,0.377c-1.808,0-3.259-0.2-4.354-0.603
	c-1.098-0.397-1.938-0.922-2.525-1.563c-0.587-0.645-0.972-1.373-1.155-2.193c-0.188-0.817-0.281-1.646-0.281-2.483V36.323h-2.594
	V35.93H36.144z M63.848,35.93v0.393H61.17l5.774,15.141l5.888-15.141H70.32V35.93h5.328v0.393h-2.4l-7.867,20.25h-0.808
	l-7.701-20.25h-2.344V35.93H63.848z M94.328,29.032c0.157-0.187,0.423-0.28,0.795-0.28c0.148,0,0.339,0.07,0.571,0.209
	c0.233,0.14,0.349,0.35,0.349,0.63c0,0.075-0.014,0.185-0.041,0.335c-0.025,0.148-0.099,0.289-0.209,0.419l-3.935,4.188h-0.361
	l2.455-4.916C94.043,29.414,94.168,29.219,94.328,29.032z M100.118,35.93v4.776h-0.364c-0.093-0.316-0.251-0.723-0.474-1.215
	c-0.223-0.493-0.535-0.975-0.936-1.438c-0.401-0.464-0.915-0.869-1.55-1.215c-0.632-0.344-1.402-0.519-2.313-0.519h-4.438v8.632
	h1.563c0.687,0,1.27-0.1,1.744-0.293c0.474-0.194,0.871-0.477,1.186-0.84c0.316-0.36,0.576-0.8,0.781-1.312
	c0.205-0.513,0.372-1.085,0.502-1.72h0.364v8.688H95.82c-0.13-0.539-0.282-1.062-0.46-1.563c-0.177-0.502-0.414-0.942-0.712-1.324
	c-0.296-0.383-0.665-0.688-1.103-0.908c-0.438-0.225-0.981-0.335-1.632-0.335h-1.871v10.083h4.578c0.855,0,1.626-0.146,2.314-0.435
	c0.687-0.288,1.298-0.692,1.829-1.216c0.527-0.521,0.97-1.131,1.321-1.829c0.354-0.697,0.624-1.445,0.812-2.247h0.361v6.115H83.433
	v-0.391h2.564V36.323h-2.564V35.93H100.118z M127.515,35.93v4.776h-0.364c-0.093-0.316-0.252-0.723-0.477-1.215
	c-0.221-0.493-0.531-0.975-0.933-1.438c-0.402-0.465-0.917-0.869-1.549-1.215c-0.632-0.344-1.404-0.519-2.317-0.519h-4.435v8.632
	h1.563c0.688,0,1.271-0.1,1.743-0.293c0.476-0.194,0.87-0.477,1.188-0.84c0.313-0.36,0.573-0.8,0.778-1.312
	c0.204-0.513,0.372-1.085,0.502-1.72h0.363v8.688h-0.363c-0.13-0.539-0.281-1.062-0.461-1.563c-0.176-0.502-0.414-0.942-0.711-1.324
	c-0.297-0.383-0.664-0.688-1.102-0.908c-0.438-0.225-0.981-0.335-1.632-0.335h-1.869v10.083h4.576c0.854,0,1.627-0.146,2.313-0.435
	c0.689-0.288,1.298-0.692,1.829-1.216c0.529-0.521,0.971-1.131,1.325-1.829c0.354-0.697,0.623-1.445,0.809-2.247h0.363v6.115H110.83
	v-0.391h2.566V36.323h-2.566V35.93H127.515z M160.937,44.952c0.838,0,1.497-0.11,1.979-0.334c0.485-0.227,0.85-0.525,1.09-0.907
	c0.241-0.383,0.396-0.815,0.459-1.301c0.065-0.483,0.102-0.979,0.102-1.479c0-0.819-0.059-1.521-0.169-2.108
	c-0.111-0.586-0.297-1.068-0.559-1.451c-0.262-0.384-0.617-0.666-1.072-0.854c-0.457-0.187-1.038-0.28-1.745-0.28
	c-0.204,0-0.407,0.012-0.612,0.029c-0.205,0.019-0.41,0.038-0.616,0.058v8.63L160.937,44.952L160.937,44.952z M153.18,36.323V35.93
	h4.213c0.78,0,1.555-0.015,2.314-0.042c0.765-0.027,1.535-0.041,2.315-0.041c0.725,0,1.493,0.075,2.303,0.223
	c0.808,0.149,1.548,0.405,2.217,0.771c0.67,0.363,1.225,0.852,1.66,1.467c0.438,0.614,0.656,1.388,0.656,2.316
	c0,0.746-0.167,1.384-0.502,1.914c-0.335,0.528-0.77,0.963-1.299,1.301c-0.529,0.335-1.118,0.591-1.771,0.768
	c-0.649,0.179-1.293,0.293-1.925,0.35v0.141c0.91,0.168,1.726,0.335,2.44,0.503c0.715,0.167,1.334,0.419,1.854,0.754
	c0.521,0.335,0.934,0.801,1.241,1.396c0.307,0.598,0.498,1.396,0.569,2.4c0.097,1.176,0.169,2.115,0.227,2.822
	c0.055,0.707,0.133,1.256,0.235,1.647c0.104,0.391,0.24,0.65,0.418,0.78c0.178,0.131,0.434,0.195,0.769,0.195
	c0.372,0,0.678-0.105,0.919-0.321c0.244-0.215,0.457-0.414,0.645-0.601l0.278,0.252c-0.187,0.186-0.368,0.358-0.546,0.516
	c-0.175,0.159-0.38,0.294-0.611,0.406s-0.517,0.199-0.852,0.266c-0.335,0.065-0.753,0.099-1.255,0.099
	c-1.024,0-1.825-0.163-2.4-0.488c-0.576-0.325-1.005-0.729-1.282-1.215c-0.277-0.484-0.45-1.011-0.519-1.577
	c-0.063-0.569-0.104-1.104-0.125-1.605c-0.036-0.766-0.087-1.506-0.151-2.223c-0.063-0.717-0.221-1.354-0.462-1.913
	c-0.24-0.559-0.604-1.006-1.088-1.34c-0.482-0.335-1.162-0.503-2.037-0.503h-1.843V55.43h2.568v0.391h-9.181V55.43h2.566V36.323
	H153.18z M185.656,50.748c0.222,1.274,0.57,2.29,1.046,3.045c0.474,0.755,1.087,1.281,1.839,1.578
	c0.755,0.299,1.652,0.445,2.694,0.445c1.377,0,2.455-0.256,3.236-0.768c0.778-0.513,1.365-1.222,1.758-2.122
	c0.391-0.904,0.637-1.977,0.736-3.214c0.104-1.237,0.154-2.583,0.154-4.035c0-1.304-0.042-2.546-0.126-3.729
	c-0.083-1.184-0.32-2.228-0.711-3.131c-0.392-0.899-0.979-1.617-1.771-2.148c-0.79-0.53-1.885-0.795-3.277-0.795
	c-1.303,0-2.345,0.246-3.124,0.738c-0.782,0.493-1.377,1.188-1.786,2.08c-0.41,0.896-0.68,1.956-0.81,3.188
	c-0.13,1.228-0.194,2.579-0.194,4.049C185.321,47.867,185.432,49.473,185.656,50.748z M181.735,41.629
	c0.642-1.284,1.466-2.384,2.469-3.298c1.005-0.91,2.13-1.613,3.376-2.108c1.246-0.492,2.465-0.74,3.655-0.74
	c1.282,0,2.553,0.242,3.808,0.729c1.256,0.481,2.371,1.173,3.35,2.064c0.978,0.896,1.768,1.979,2.372,3.255
	c0.604,1.274,0.904,2.715,0.904,4.315c0,1.396-0.282,2.723-0.85,3.979c-0.569,1.258-1.331,2.359-2.288,3.312
	c-0.958,0.949-2.065,1.699-3.32,2.248c-1.256,0.549-2.581,0.823-3.976,0.823c-1.377,0-2.697-0.268-3.962-0.796
	c-1.267-0.531-2.376-1.258-3.333-2.18c-0.959-0.923-1.729-2.007-2.304-3.255c-0.576-1.247-0.864-2.597-0.864-4.05
	C180.772,44.348,181.093,42.913,181.735,41.629z M212.272,49.618c0.035,0.223,0.1,0.517,0.192,0.879
	c0.094,0.361,0.229,0.754,0.404,1.174c0.177,0.419,0.399,0.848,0.669,1.284c0.271,0.438,0.602,0.844,0.992,1.216
	c0.426,0.427,0.84,0.754,1.241,0.977c0.397,0.226,0.778,0.389,1.143,0.489c0.364,0.104,0.706,0.159,1.032,0.169
	c0.325,0.008,0.628,0.013,0.908,0.013c0.982,0,1.795-0.152,2.427-0.461c0.632-0.307,1.129-0.685,1.492-1.132
	c0.363-0.445,0.617-0.916,0.768-1.41c0.148-0.493,0.225-0.926,0.225-1.299c0-0.688-0.164-1.256-0.488-1.704
	c-0.325-0.444-0.759-0.817-1.296-1.115c-0.54-0.299-1.154-0.551-1.843-0.755c-0.688-0.205-1.396-0.416-2.12-0.63
	c-0.727-0.213-1.434-0.465-2.119-0.753c-0.689-0.289-1.303-0.661-1.843-1.118c-0.54-0.455-0.976-1.02-1.3-1.688
	c-0.323-0.671-0.484-1.509-0.484-2.517c0-0.743,0.167-1.461,0.502-2.147c0.334-0.688,0.799-1.3,1.395-1.83
	c0.597-0.53,1.308-0.959,2.136-1.284c0.825-0.327,1.726-0.49,2.691-0.49c0.613,0,1.152,0.059,1.617,0.169
	c0.465,0.111,0.875,0.229,1.228,0.352c0.354,0.12,0.664,0.235,0.937,0.348c0.27,0.113,0.515,0.168,0.739,0.168
	c0.261,0,0.433-0.042,0.517-0.126c0.083-0.083,0.172-0.235,0.265-0.461h0.447v5.309h-0.363c-0.224-0.649-0.461-1.296-0.711-1.928
	c-0.253-0.634-0.571-1.206-0.963-1.719c-0.391-0.513-0.885-0.927-1.479-1.243c-0.597-0.313-1.349-0.474-2.259-0.474
	c-0.743,0-1.398,0.102-1.97,0.307c-0.564,0.205-1.045,0.477-1.435,0.812c-0.395,0.335-0.69,0.708-0.896,1.116
	c-0.206,0.409-0.307,0.828-0.307,1.258c0,0.65,0.172,1.189,0.516,1.621c0.345,0.427,0.795,0.795,1.354,1.103
	c0.556,0.308,1.193,0.572,1.91,0.796c0.716,0.225,1.45,0.457,2.203,0.699c0.754,0.241,1.487,0.508,2.204,0.796
	c0.716,0.289,1.354,0.654,1.909,1.103c0.56,0.447,1.011,0.988,1.354,1.62c0.344,0.636,0.515,1.415,0.515,2.349
	c0,0.912-0.187,1.776-0.557,2.598c-0.372,0.819-0.898,1.536-1.576,2.15c-0.681,0.612-1.489,1.104-2.427,1.466
	c-0.941,0.363-1.986,0.545-3.143,0.545c-0.574,0-1.146-0.056-1.716-0.168c-0.565-0.111-1.097-0.229-1.59-0.35
	c-0.494-0.12-0.931-0.237-1.312-0.351c-0.384-0.111-0.665-0.167-0.853-0.167c-0.261,0-0.447,0.043-0.557,0.126
	c-0.112,0.084-0.216,0.255-0.311,0.519h-0.444v-6.2h0.423v-0.008H212.272z M247.355,29.032c0.157-0.187,0.423-0.28,0.795-0.28
	c0.146,0,0.339,0.07,0.57,0.209c0.231,0.14,0.351,0.35,0.351,0.63c0,0.075-0.016,0.185-0.043,0.335
	c-0.028,0.148-0.097,0.289-0.208,0.419l-3.938,4.188h-0.359l2.454-4.916C247.07,29.414,247.196,29.219,247.355,29.032z
	 M253.144,35.93v4.776h-0.362c-0.092-0.316-0.25-0.723-0.475-1.215c-0.226-0.493-0.533-0.975-0.937-1.438
	c-0.397-0.465-0.916-0.869-1.548-1.215c-0.632-0.344-1.404-0.519-2.316-0.519h-4.435v8.632h1.562c0.688,0,1.271-0.1,1.743-0.293
	c0.477-0.194,0.869-0.477,1.188-0.84c0.313-0.36,0.575-0.8,0.78-1.312c0.203-0.513,0.37-1.085,0.502-1.72h0.361v8.688h-0.361
	c-0.132-0.539-0.282-1.062-0.459-1.563c-0.179-0.502-0.415-0.942-0.715-1.324c-0.297-0.383-0.662-0.688-1.101-0.908
	c-0.438-0.225-0.982-0.335-1.632-0.335h-1.869v10.083h4.574c0.854,0,1.628-0.146,2.314-0.435c0.688-0.288,1.297-0.692,1.826-1.216
	c0.531-0.521,0.973-1.131,1.326-1.829c0.353-0.697,0.623-1.445,0.81-2.247h0.362v6.115H236.46v-0.391h2.565V36.323h-2.565V35.93
	H253.144z"/>
</svg>
